<?xml version="1.0" standalone="no"?>
<!DOCTYPE svg PUBLIC "-//W3C//DTD SVG 20010904//EN"
 "http://www.w3.org/TR/2001/REC-SVG-20010904/DTD/svg10.dtd">
<svg version="1.0" xmlns="http://www.w3.org/2000/svg"
 width="1054.000000pt" height="863.000000pt" viewBox="0 0 1054.000000 863.000000"
 preserveAspectRatio="xMidYMid meet">
<metadata>
Created by potrace 1.15, written by Peter Selinger 2001-2017
</metadata>
<g transform="translate(0.000000,863.000000) scale(0.100000,-0.100000)"
fill="#000000" stroke="none">
<path d="M2057 8608 c-13 -13 -51 -75 -86 -138 -34 -63 -73 -126 -87 -140
l-24 -24 -31 29 c-17 17 -54 76 -81 132 -66 137 -105 163 -161 105 -34 -35
-42 -63 -63 -211 -9 -64 -23 -131 -30 -149 -12 -29 -16 -32 -33 -22 -11 5 -48
51 -82 100 -65 95 -96 117 -126 87 -19 -19 -32 -83 -33 -163 -1 -146 -39 -245
-139 -358 -120 -136 -146 -246 -100 -432 22 -90 26 -99 69 -136 80 -71 129
-99 228 -130 84 -26 104 -37 144 -77 53 -53 70 -97 45 -116 -9 -6 -56 -17
-104 -25 -109 -16 -145 -34 -137 -69 99 -434 139 -513 294 -585 45 -21 70 -26
141 -26 82 0 86 1 115 31 62 65 138 85 212 53 20 -9 57 -19 82 -22 l45 -7 22
-78 c60 -209 79 -382 93 -812 18 -585 60 -969 140 -1285 110 -436 271 -687
630 -985 l105 -87 15 -108 c14 -96 14 -107 0 -100 -8 5 -100 82 -205 172 -214
184 -326 273 -435 345 -110 73 -144 89 -301 134 -78 22 -165 52 -192 65 -27
14 -51 23 -53 21 -2 -2 24 -26 58 -53 94 -73 315 -296 494 -499 87 -99 197
-220 244 -269 496 -519 1134 -828 1922 -932 167 -22 599 -30 781 -14 612 52
1006 188 1407 488 139 104 434 395 580 571 141 171 740 979 740 998 0 3 -12
-2 -26 -12 -15 -9 -72 -33 -128 -51 -68 -23 -128 -52 -185 -90 -56 -37 -82
-50 -77 -38 4 10 14 75 22 144 8 69 21 163 28 210 8 47 17 106 21 132 8 61 31
89 113 134 123 68 211 135 306 234 91 95 210 259 240 332 9 19 22 97 31 173
18 156 14 203 -37 409 -16 67 -38 172 -49 235 -10 62 -37 190 -59 285 -51 222
-64 308 -56 379 6 61 35 138 63 169 9 10 14 21 11 23 -12 12 -110 -111 -142
-178 -69 -144 -71 -218 -12 -557 65 -380 67 -399 56 -482 -18 -124 -104 -279
-230 -412 -137 -145 -306 -238 -511 -281 -148 -31 -166 -59 -149 -229 28 -257
-26 -405 -236 -656 -65 -78 -137 -143 -245 -223 l-36 -27 -14 26 c-23 44 -126
132 -192 163 -186 89 -379 51 -551 -110 -41 -38 -100 -107 -131 -153 l-57 -84
-42 41 c-120 117 -277 162 -429 122 -84 -22 -134 -51 -202 -116 l-60 -58 -30
56 c-68 130 -189 222 -323 245 -189 32 -378 -54 -520 -237 -31 -40 -59 -74
-62 -74 -3 0 -23 25 -45 56 -62 86 -193 213 -286 276 -235 160 -479 158 -665
-5 l-37 -33 -59 65 c-305 334 -430 642 -673 1662 -101 425 -159 640 -227 842
-47 140 -49 150 -31 159 36 18 204 200 255 275 77 113 97 181 98 323 0 206
-24 275 -134 384 -208 205 -571 276 -928 180 -161 -44 -270 -66 -289 -60 -27
9 -24 49 8 104 134 231 353 354 658 368 330 15 600 -106 908 -406 155 -151
212 -245 350 -571 36 -85 108 -248 161 -362 52 -114 106 -233 120 -265 186
-440 394 -726 662 -909 216 -148 414 -217 794 -275 194 -30 618 -33 775 -6
273 48 482 133 735 302 247 163 557 430 772 663 166 179 422 419 552 517 176
131 292 186 540 251 92 24 171 44 175 45 3 0 -4 4 -16 9 -34 14 -346 -6 -460
-29 -269 -55 -449 -141 -829 -397 -152 -102 -347 -236 -433 -297 -324 -231
-494 -326 -707 -396 -257 -84 -503 -123 -779 -123 -490 -1 -857 127 -1110 386
-76 78 -108 123 -209 290 -282 468 -503 770 -741 1015 -143 147 -237 226 -365
311 -89 58 -246 140 -269 140 -5 0 -12 4 -15 8 -3 5 33 107 80 227 67 176 84
230 84 272 l0 53 -50 0 c-38 0 -80 -12 -169 -50 -149 -62 -170 -67 -199 -43
-20 15 -26 38 -42 146 -20 129 -30 162 -59 184 -26 20 -79 15 -104 -9z m-99
-1209 c74 -36 116 -122 93 -192 -26 -77 -95 -126 -179 -127 -152 -1 -243 146
-161 259 55 77 159 102 247 60z m1732 -3836 c127 -56 312 -238 414 -407 l34
-57 -28 -78 c-81 -220 -95 -390 -45 -532 l14 -38 -36 -21 -36 -21 -116 36
c-243 77 -442 170 -468 218 -88 172 -130 474 -88 652 33 144 106 248 190 270
59 15 91 11 165 -22z m2835 -24 c137 -38 233 -197 271 -449 7 -52 14 -133 14
-180 l0 -85 -112 -67 c-155 -91 -293 -161 -414 -208 -57 -22 -104 -40 -107
-40 -2 0 -4 66 -4 148 0 183 -26 302 -98 453 l-17 36 42 85 c56 113 128 207
193 252 91 63 152 77 232 55z m-1626 -136 c64 -54 139 -233 143 -339 0 -21 -9
-82 -21 -134 -17 -74 -23 -131 -24 -255 l-3 -160 -32 -57 c-56 -97 -144 -158
-229 -158 -106 0 -268 22 -300 41 -84 51 -155 174 -173 296 -37 264 149 638
385 773 101 58 182 55 254 -7z m776 -87 c92 -76 183 -230 245 -415 34 -101 55
-251 46 -321 -7 -51 -34 -129 -50 -146 -20 -21 -295 -82 -485 -109 -120 -16
-111 -21 -161 80 -52 105 -63 171 -57 335 10 245 74 420 201 542 61 60 102 79
163 75 42 -3 60 -10 98 -41z"/>
<path d="M1815 7341 c-58 -24 -82 -106 -45 -153 25 -32 87 -54 125 -44 45 11
75 50 75 96 0 23 -5 50 -10 61 -22 40 -95 60 -145 40z"/>
<path d="M9840 5429 c-235 -30 -311 -44 -330 -58 -38 -28 -51 -77 -39 -157 5
-37 11 -69 12 -70 1 -1 67 6 147 16 80 11 151 19 157 20 7 0 -1 -19 -17 -42
-87 -123 -52 -352 71 -462 80 -72 199 -99 350 -77 111 15 180 45 243 102 77
70 98 125 104 266 10 235 -68 415 -205 474 -78 33 -162 31 -493 -12z m413
-223 c66 -28 107 -98 107 -183 0 -102 -73 -163 -215 -179 -124 -15 -213 38
-236 140 -31 141 65 233 244 235 37 1 82 -5 100 -13z"/>
<path d="M401 4875 c-153 -34 -282 -129 -345 -257 -47 -93 -59 -160 -54 -303
3 -109 7 -126 35 -187 17 -36 49 -84 71 -106 l40 -40 -39 -15 c-29 -11 -43
-25 -54 -51 -20 -48 -20 -125 1 -133 12 -5 548 25 549 30 1 3 -33 482 -34 485
-4 8 -77 0 -105 -12 -52 -22 -69 -69 -61 -172 8 -93 7 -94 -50 -70 -57 24
-100 63 -131 118 -26 48 -29 62 -29 148 0 78 4 104 24 148 50 111 169 172 333
172 198 0 310 -110 312 -305 1 -86 -34 -168 -90 -210 -54 -41 -65 -77 -57
-185 7 -102 10 -104 94 -75 105 37 175 114 216 239 23 71 26 98 27 216 1 210
-38 326 -148 436 -123 122 -312 170 -505 129z"/>
<path d="M9935 4465 c-5 -2 -22 -6 -38 -9 -44 -10 -102 -70 -132 -137 -62
-139 -82 -365 -41 -464 28 -65 116 -143 149 -132 7 2 19 52 28 117 15 108 15
114 -3 132 -38 38 -12 212 36 243 27 18 46 13 66 -18 10 -16 14 -64 16 -182 2
-183 16 -243 67 -302 44 -50 105 -75 182 -75 104 1 171 48 221 157 51 111 58
333 15 446 -26 68 -95 138 -161 162 -33 13 -383 71 -393 66 -1 0 -6 -2 -12 -4z
m308 -279 c74 -27 110 -80 111 -166 1 -69 -19 -117 -55 -136 -35 -17 -70 -10
-98 20 -23 24 -35 82 -45 219 l-6 77 28 0 c15 -1 44 -7 65 -14z"/>
<path d="M9465 3731 c-11 -5 -28 -17 -37 -28 -24 -26 -71 -131 -65 -146 3 -7
68 -39 145 -71 l140 -60 -47 -21 c-83 -39 -147 -128 -177 -247 -31 -119 1
-240 83 -320 88 -86 259 -158 373 -158 139 0 258 88 338 250 122 250 88 451
-95 547 -105 56 -591 263 -615 262 -13 0 -32 -4 -43 -8z m478 -437 c71 -34
133 -99 142 -148 10 -49 -19 -129 -64 -176 -47 -49 -92 -59 -174 -36 -151 42
-233 134 -213 239 9 50 58 121 97 140 49 26 139 17 212 -19z"/>
<path d="M590 3660 c-49 -11 -430 -139 -442 -150 -6 -5 56 -215 68 -229 2 -2
105 31 228 73 252 86 272 88 330 32 20 -19 43 -59 60 -103 l27 -71 97 33 c96
32 97 33 96 63 -3 49 -78 193 -131 250 -83 88 -211 127 -333 102z"/>
<path d="M922 3113 c-13 -3 -22 -8 -20 -12 2 -3 27 -48 57 -99 46 -80 59 -95
93 -109 69 -27 150 -176 121 -222 -28 -44 -82 -17 -150 73 -75 100 -164 186
-218 212 -149 71 -315 -24 -332 -191 -11 -104 55 -248 168 -370 83 -88 157
-125 253 -125 83 0 119 15 290 117 175 104 200 135 199 243 -2 156 -147 400
-275 464 -51 25 -117 32 -186 19z m-107 -380 c22 -15 73 -61 113 -103 l72 -77
-49 -26 c-87 -48 -158 -34 -225 45 -61 71 -64 142 -7 173 37 20 52 18 96 -12z"/>
<path d="M9032 2904 c-24 -16 -102 -126 -102 -143 0 -11 113 -91 127 -91 15 0
134 182 129 196 -8 22 -68 54 -101 54 -17 0 -41 -7 -53 -16z"/>
<path d="M9231 2788 c-12 -7 -45 -45 -72 -85 l-49 -73 330 -220 c181 -121 334
-220 339 -220 8 0 131 180 131 193 0 13 -601 408 -628 412 -15 2 -38 -1 -51
-7z"/>
<path d="M8824 2610 c-22 -9 -119 -115 -119 -129 0 -7 755 -637 784 -655 4 -3
42 37 84 89 l77 93 -342 284 c-188 156 -355 293 -372 306 -31 23 -74 27 -112
12z"/>
<path d="M1424 2377 c-22 -8 -58 -26 -80 -41 -52 -35 -404 -367 -404 -381 0
-6 37 -47 83 -93 l82 -82 190 181 c105 99 205 187 222 195 29 12 37 12 73 -2
77 -31 144 -134 125 -193 -3 -11 -59 -71 -123 -133 -256 -248 -232 -219 -232
-271 0 -44 4 -51 63 -112 l62 -65 202 198 c237 231 248 247 248 372 0 78 -3
90 -35 150 -49 91 -167 208 -251 249 -78 38 -161 48 -225 28z"/>
<path d="M8756 2139 c-138 -33 -349 -216 -391 -338 -8 -25 -15 -66 -15 -93 0
-45 25 -128 39 -128 3 0 44 33 91 74 68 60 85 80 86 105 1 16 11 43 23 60 24
33 105 95 138 105 33 10 63 -10 63 -42 0 -32 -18 -58 -117 -172 -125 -145
-157 -244 -113 -349 25 -58 84 -114 137 -132 56 -18 151 -7 218 26 89 43 212
171 261 271 34 69 39 86 39 149 -1 52 -7 82 -24 117 -27 57 -243 304 -286 329
-39 22 -100 30 -149 18z m221 -454 c22 -41 20 -93 -5 -142 -23 -44 -84 -100
-118 -109 -30 -8 -83 22 -95 53 -15 40 -3 75 53 150 27 37 60 85 71 106 l22
38 28 -33 c16 -18 35 -46 44 -63z"/>
<path d="M2222 2025 c-23 -30 -45 -60 -47 -67 -5 -11 67 -73 167 -146 15 -11
21 -8 48 29 35 49 39 95 11 131 -19 23 -123 109 -132 107 -2 0 -23 -24 -47
-54z"/>
<path d="M1847 1545 c-225 -287 -283 -355 -302 -355 -13 0 -27 4 -30 10 -3 5
-15 14 -25 20 -16 9 -27 0 -75 -62 l-57 -73 39 -32 c101 -87 222 -119 294 -77
32 19 151 164 469 572 153 195 154 206 39 302 -33 27 -63 50 -67 50 -4 0 -132
-160 -285 -355z"/>
<path d="M7802 1725 c-30 -8 -84 -30 -121 -48 -265 -131 -387 -314 -360 -541
23 -190 158 -390 315 -467 61 -30 78 -34 171 -37 90 -4 114 -1 186 22 176 55
339 181 404 313 34 68 37 84 38 157 0 87 -18 166 -38 166 -7 0 -55 -24 -107
-54 l-95 -54 3 -45 c5 -70 -14 -124 -63 -176 -71 -76 -203 -129 -283 -115
-100 18 -188 97 -250 224 -33 67 -37 83 -37 155 0 69 4 86 28 127 33 58 95
109 173 145 75 35 150 37 211 5 60 -32 97 -28 183 19 41 22 79 44 84 49 13 13
-92 113 -149 140 -62 31 -209 38 -293 15z"/>
<path d="M2410 1577 c-45 -13 -120 -61 -120 -77 0 -5 45 -36 99 -69 92 -55
102 -59 129 -49 25 10 38 8 86 -16 113 -55 161 -131 100 -158 -28 -13 -31 -12
-234 68 -126 49 -223 57 -290 22 -118 -61 -163 -217 -95 -333 73 -125 288
-238 455 -239 76 -1 91 2 139 29 29 16 68 48 86 70 46 58 184 297 197 341 29
105 -49 219 -223 327 -129 80 -241 109 -329 84z m62 -467 c51 -16 110 -33 131
-37 l37 -8 -32 -50 c-42 -64 -105 -99 -162 -90 -55 8 -129 51 -150 86 -24 41
-7 95 38 115 41 17 32 18 138 -16z"/>
<path d="M3209 1180 c-115 -20 -189 -104 -189 -217 0 -97 61 -170 220 -265 99
-60 165 -111 181 -141 10 -18 8 -24 -16 -44 -32 -28 -68 -25 -157 14 -74 33
-110 71 -117 125 l-6 42 -100 38 c-55 21 -105 38 -112 38 -31 0 -36 -134 -7
-195 63 -135 307 -255 519 -255 69 0 90 4 136 27 101 52 149 182 103 279 -23
48 -104 118 -220 189 -122 75 -177 125 -172 157 5 35 44 44 109 25 80 -24 121
-55 139 -106 8 -24 26 -52 40 -62 29 -21 177 -75 185 -68 12 13 16 98 6 135
-6 22 -24 60 -41 85 -82 125 -338 226 -501 199z"/>
<path d="M5320 943 c0 -49 -3 -118 -6 -155 l-7 -68 -34 30 c-49 43 -83 58
-161 72 -138 23 -297 -32 -360 -126 -49 -72 -65 -134 -70 -268 -3 -103 -1
-137 14 -184 33 -104 117 -185 227 -220 71 -22 260 -30 339 -14 120 23 202 82
244 175 29 64 32 95 44 459 8 257 7 303 -6 327 -22 43 -62 59 -149 59 l-75 0
0 -87z m-109 -328 c62 -33 93 -113 87 -224 -5 -89 -31 -148 -80 -183 -28 -19
-45 -23 -110 -23 -90 0 -118 16 -157 86 -45 79 -30 240 28 309 48 58 156 74
232 35z"/>
<path d="M5950 859 c-195 -51 -283 -162 -282 -359 0 -208 74 -355 211 -419 46
-21 74 -26 162 -29 122 -5 191 7 276 47 99 47 173 140 189 239 l6 39 -88 -13
c-125 -18 -126 -19 -185 -69 -85 -72 -179 -82 -252 -25 -25 20 -64 96 -54 106
3 3 135 24 292 47 l287 41 -6 52 c-21 182 -111 310 -244 350 -66 20 -222 17
-312 -7z m222 -180 c28 -20 76 -99 61 -99 -5 0 -79 -11 -165 -24 -157 -23
-158 -23 -158 -2 0 31 38 103 64 120 61 39 146 42 198 5z"/>
</g>
</svg>
